Fatal error: Uncaught exception 'Zend_Http_Client_Adapter_Exception' with message 'Unable to Connect to tcp://api.pathtraq.com:80. Error #12645356: ' in D:\php\PEAR\Zend\Http\Client\Adapter\Socket.php:144
Stack trace:
#0 D:\php\PEAR\Zend\Http\Client.php(777): Zend_Http_Client_Adapter_Socket->connect('api.pathtraq.co...', 80, false)
#1 I:\work\codereposPhp\ZendFramework_ext\library\Gene\Webservices\Pathtraq.php(299): Zend_Http_Client->request('GET')
#2 I:\work\codereposPhp\ZendFramework_ext\library\Gene\Webservices\Pathtraq.php(169): Gene_Webservices_Pathtraq->_get('http://api.path...')
#3 I:\work\codereposPhp\ZendFramework_ext\tests\Gene\Webservices\Pathtraq\CategoryRanking.php(9): Gene_Webservices_Pathtraq->categoryRanking(Array)
#4 {main}
  thrown in D:\php\PEAR\Zend\Http\Client\Adapter\Socket.php on line 144